ogd-daten-analyse.qmd
…
Figure 2: Städtevergleich 2

3. Visualisierung erstellen

plot_daten <-daten_t |>
  select(-zuerich_binary) |>
  filter(Stadt %in% c("Zuerich", "Median_der_5_Vergleichsregionen")) |>
  pivot_wider(names_from = Stadt, values_from = Indexwert) |>
  mutate(Difference = Zuerich - Median_der_5_Vergleichsregionen) |>
  arrange(desc(Difference))

print(plot_daten)

# A tibble: 45 × 9
   ID    Indikator       Zuercher_Daten Minimalwert Maximalwert Messjahr Zuerich
   <chr> <chr>           <chr>                <dbl>       <dbl>    <dbl>   <dbl>
 1 W.4   Fortune 500-Un… Ja                    6.15        38.3     2023   100  
 2 B.8   Berufsweltmeis… Nein                 18.0         58.1     2022    86.0
 3 B.1   Anteil Top-Uni… Nein                 15.7         66.6     2023   100  
 4 H&A.3 Anteil Bevölke… Ja                   29.7        100       2021   100  
 5 F&I.7 Patentanmeldun… Ja                   40.1        100       2021    87.4
 6 F&I.2 Anteil Private… Ja                   20.5        100       2021    81.1
 7 B.2   Anteil neue MI… Nein                 37.4        100       2021   100  
 8 S&R.7 BAK Taxation I… Ja                   12.1         40.2     2021    62.2
 9 K.1   Elektrizitätsp… Nein                 32.6         52.8     2023    66.5
10 S&R.4 Produktmarktre… Nein                  0           39.4     2018    48.9
# ℹ 35 more rows
# ℹ 2 more variables: Median_der_5_Vergleichsregionen <dbl>, Difference <dbl>
…
Figure 3: Abweichungen vom Median Zürich

plot_daten2 <-daten_t |>
  select(-zuerich_binary) |>
  filter(Stadt %in% c("Muenchen", "Median_der_5_Vergleichsregionen")) |>
  pivot_wider(names_from = Stadt, values_from = Indexwert) |>
  mutate(Difference = Muenchen - Median_der_5_Vergleichsregionen) |>
  arrange(desc(Difference))

print(plot_daten)

# A tibble: 45 × 9
   ID    Indikator       Zuercher_Daten Minimalwert Maximalwert Messjahr Zuerich
   <chr> <chr>           <chr>                <dbl>       <dbl>    <dbl>   <dbl>
 1 W.4   Fortune 500-Un… Ja                    6.15        38.3     2023   100  
 2 B.8   Berufsweltmeis… Nein                 18.0         58.1     2022    86.0
 3 B.1   Anteil Top-Uni… Nein                 15.7         66.6     2023   100  
 4 H&A.3 Anteil Bevölke… Ja                   29.7        100       2021   100  
 5 F&I.7 Patentanmeldun… Ja                   40.1        100       2021    87.4
 6 F&I.2 Anteil Private… Ja                   20.5        100       2021    81.1
 7 B.2   Anteil neue MI… Nein                 37.4        100       2021   100  
 8 S&R.7 BAK Taxation I… Ja                   12.1         40.2     2021    62.2
 9 K.1   Elektrizitätsp… Nein                 32.6         52.8     2023    66.5
10 S&R.4 Produktmarktre… Nein                  0           39.4     2018    48.9
# ℹ 35 more rows
# ℹ 2 more variables: Median_der_5_Vergleichsregionen <dbl>, Difference <dbl>
…
Figure 4: Abweichungen vom Median München

plot_daten3 <-daten_t |>
  select(-zuerich_binary) |>
  filter(Stadt %in% c("Dublin", "Median_der_5_Vergleichsregionen")) |>
  pivot_wider(names_from = Stadt, values_from = Indexwert) |>
  mutate(Difference = Dublin - Median_der_5_Vergleichsregionen) |>
  arrange(desc(Difference))

print(plot_daten)

# A tibble: 45 × 9
   ID    Indikator       Zuercher_Daten Minimalwert Maximalwert Messjahr Zuerich
   <chr> <chr>           <chr>                <dbl>       <dbl>    <dbl>   <dbl>
 1 W.4   Fortune 500-Un… Ja                    6.15        38.3     2023   100  
 2 B.8   Berufsweltmeis… Nein                 18.0         58.1     2022    86.0
 3 B.1   Anteil Top-Uni… Nein                 15.7         66.6     2023   100  
 4 H&A.3 Anteil Bevölke… Ja                   29.7        100       2021   100  
 5 F&I.7 Patentanmeldun… Ja                   40.1        100       2021    87.4
 6 F&I.2 Anteil Private… Ja                   20.5        100       2021    81.1
 7 B.2   Anteil neue MI… Nein                 37.4        100       2021   100  
 8 S&R.7 BAK Taxation I… Ja                   12.1         40.2     2021    62.2
 9 K.1   Elektrizitätsp… Nein                 32.6         52.8     2023    66.5
10 S&R.4 Produktmarktre… Nein                  0           39.4     2018    48.9
# ℹ 35 more rows
# ℹ 2 more variables: Median_der_5_Vergleichsregionen <dbl>, Difference <dbl>
…
Figure 5: Abweichungen vom Median Dublin

plot_daten4 <-daten_t |>
  select(-zuerich_binary) |>
  filter(Stadt %in% c("Stockholm", "Median_der_5_Vergleichsregionen")) |>
  pivot_wider(names_from = Stadt, values_from = Indexwert) |>
  mutate(Difference = Stockholm - Median_der_5_Vergleichsregionen) |>
  arrange(desc(Difference))

print(plot_daten)

# A tibble: 45 × 9
   ID    Indikator       Zuercher_Daten Minimalwert Maximalwert Messjahr Zuerich
   <chr> <chr>           <chr>                <dbl>       <dbl>    <dbl>   <dbl>
 1 W.4   Fortune 500-Un… Ja                    6.15        38.3     2023   100  
 2 B.8   Berufsweltmeis… Nein                 18.0         58.1     2022    86.0
 3 B.1   Anteil Top-Uni… Nein                 15.7         66.6     2023   100  
 4 H&A.3 Anteil Bevölke… Ja                   29.7        100       2021   100  
 5 F&I.7 Patentanmeldun… Ja                   40.1        100       2021    87.4
 6 F&I.2 Anteil Private… Ja                   20.5        100       2021    81.1
 7 B.2   Anteil neue MI… Nein                 37.4        100       2021   100  
 8 S&R.7 BAK Taxation I… Ja                   12.1         40.2     2021    62.2
 9 K.1   Elektrizitätsp… Nein                 32.6         52.8     2023    66.5
10 S&R.4 Produktmarktre… Nein                  0           39.4     2018    48.9
# ℹ 35 more rows
# ℹ 2 more variables: Median_der_5_Vergleichsregionen <dbl>, Difference <dbl>
…
Figure 6: Abweichungen vom Median Stockholm

plot_daten5 <-daten_t |>
  select(-zuerich_binary) |>
  filter(Stadt %in% c("Amsterdam", "Median_der_5_Vergleichsregionen")) |>
  pivot_wider(names_from = Stadt, values_from = Indexwert) |>
  mutate(Difference = Amsterdam - Median_der_5_Vergleichsregionen) |>
  arrange(desc(Difference))

print(plot_daten)

# A tibble: 45 × 9
   ID    Indikator       Zuercher_Daten Minimalwert Maximalwert Messjahr Zuerich
   <chr> <chr>           <chr>                <dbl>       <dbl>    <dbl>   <dbl>
 1 W.4   Fortune 500-Un… Ja                    6.15        38.3     2023   100  
 2 B.8   Berufsweltmeis… Nein                 18.0         58.1     2022    86.0
 3 B.1   Anteil Top-Uni… Nein                 15.7         66.6     2023   100  
 4 H&A.3 Anteil Bevölke… Ja                   29.7        100       2021   100  
 5 F&I.7 Patentanmeldun… Ja                   40.1        100       2021    87.4
 6 F&I.2 Anteil Private… Ja                   20.5        100       2021    81.1
 7 B.2   Anteil neue MI… Nein                 37.4        100       2021   100  
 8 S&R.7 BAK Taxation I… Ja                   12.1         40.2     2021    62.2
 9 K.1   Elektrizitätsp… Nein                 32.6         52.8     2023    66.5
10 S&R.4 Produktmarktre… Nein                  0           39.4     2018    48.9
# ℹ 35 more rows
# ℹ 2 more variables: Median_der_5_Vergleichsregionen <dbl>, Difference <dbl>
…
Figure 7: Abweichungen vom Median Amsterdam

plot_daten6 <-daten_t |>
  select(-zuerich_binary) |>
  filter(Stadt %in% c("London", "Median_der_5_Vergleichsregionen")) |>
  pivot_wider(names_from = Stadt, values_from = Indexwert) |>
  mutate(Difference = London - Median_der_5_Vergleichsregionen) |>
  arrange(desc(Difference))

print(plot_daten)

# A tibble: 45 × 9
   ID    Indikator       Zuercher_Daten Minimalwert Maximalwert Messjahr Zuerich
   <chr> <chr>           <chr>                <dbl>       <dbl>    <dbl>   <dbl>
 1 W.4   Fortune 500-Un… Ja                    6.15        38.3     2023   100  
 2 B.8   Berufsweltmeis… Nein                 18.0         58.1     2022    86.0
 3 B.1   Anteil Top-Uni… Nein                 15.7         66.6     2023   100  
 4 H&A.3 Anteil Bevölke… Ja                   29.7        100       2021   100  
 5 F&I.7 Patentanmeldun… Ja                   40.1        100       2021    87.4
 6 F&I.2 Anteil Private… Ja                   20.5        100       2021    81.1
 7 B.2   Anteil neue MI… Nein                 37.4        100       2021   100  
 8 S&R.7 BAK Taxation I… Ja                   12.1         40.2     2021    62.2
 9 K.1   Elektrizitätsp… Nein                 32.6         52.8     2023    66.5
10 S&R.4 Produktmarktre… Nein                  0           39.4     2018    48.9
# ℹ 35 more rows
# ℹ 2 more variables: Median_der_5_Vergleichsregionen <dbl>, Difference <dbl>
…
